\relax 
\bibstyle{biblatex}
\bibdata{Formal_Report_2_Falling_Sphere_with_Air_Resistance_Proportional_to_v_squared-blx,mybib}
\citation{biblatex-control}
\abx@aux@refcontext{nty/global//global/global}
\citation{raylib}
\abx@aux@cite{0}{raylib}
\abx@aux@segm{0}{0}{raylib}
\@writefile{toc}{\contentsline {section}{\numberline {0.1}Introduction}{1}{}\protected@file@percent }
\@writefile{toc}{\contentsline {section}{\numberline {0.2}Theory}{1}{}\protected@file@percent }
\@writefile{toc}{\contentsline {subsection}{\numberline {0.2.1}Newton's Laws of Motion}{1}{}\protected@file@percent }
\newlabel{fig:freeBodyDiagram}{{0.2.1}{1}{}{}{}}
\@writefile{lof}{\contentsline {figure}{\numberline {1}{\ignorespaces Free body diagram of a mass falling vertically downward, under two forces, gravity Mg, and the resistive drag force R}}{1}{}\protected@file@percent }
\citation{IEEE-754}
\abx@aux@cite{0}{IEEE-754}
\abx@aux@segm{0}{0}{IEEE-754}
\citation{IEEE-754}
\abx@aux@cite{0}{IEEE-754}
\abx@aux@segm{0}{0}{IEEE-754}
\newlabel{eq:force}{{1}{2}{}{}{}}
\newlabel{eq:acceleration}{{2}{2}{}{}{}}
\newlabel{eq:velocity}{{3}{2}{}{}{}}
\newlabel{eq:position}{{4}{2}{}{}{}}
\newlabel{eq:time}{{5}{2}{}{}{}}
\@writefile{toc}{\contentsline {subsection}{\numberline {0.2.2}Euler Method}{2}{}\protected@file@percent }
\newlabel{eq:eulerAcceleration}{{6}{2}{}{}{}}
\newlabel{eq:eulerApproxAcceleration}{{7}{2}{}{}{}}
\newlabel{eq:eulerApproxVelocity}{{8}{2}{}{}{}}
\@writefile{toc}{\contentsline {subsection}{\numberline {0.2.3}Floating Point Error}{2}{}\protected@file@percent }
\@writefile{toc}{\contentsline {section}{\numberline {0.3}Experimental Methods}{3}{}\protected@file@percent }
\@writefile{toc}{\contentsline {subsection}{\numberline {0.3.1}The Graph}{3}{}\protected@file@percent }
\@writefile{lof}{\contentsline {figure}{\numberline {2}{\ignorespaces  Example on how the graph is implimented}}{3}{}\protected@file@percent }
\newlabel{fig:graphExample}{{2}{3}{}{}{}}
\@writefile{toc}{\contentsline {subsection}{\numberline {0.3.2}The Object}{3}{}\protected@file@percent }
\@writefile{toc}{\contentsline {subsection}{\numberline {0.3.3}The Simulation}{4}{}\protected@file@percent }
\@writefile{toc}{\contentsline {section}{\numberline {0.4}Analysis Methods}{4}{}\protected@file@percent }
\@writefile{lot}{\contentsline {table}{\numberline {1}{\ignorespaces  Times for when the bowling ball hit the ground using doubles}}{5}{}\protected@file@percent }
\newlabel{tab:timedouble}{{1}{5}{}{}{}}
\@writefile{lot}{\contentsline {table}{\numberline {2}{\ignorespaces  Final velocities for the bowling ball when it hit the ground using doubles}}{5}{}\protected@file@percent }
\newlabel{tab:velocityDouble}{{2}{5}{}{}{}}
\@writefile{lof}{\contentsline {figure}{\numberline {3}{\ignorespaces The position (top left), velocity (middle left), acceleration (bottom left), potential energy (top right), kinetic energy (middle right), and total energy (bottom right) of the bowling ball falling}}{6}{}\protected@file@percent }
\newlabel{fig:bowlingBall}{{3}{6}{}{}{}}
\@writefile{lof}{\contentsline {figure}{\numberline {4}{\ignorespaces The position (top left), velocity (middle left), acceleration (bottom left), potential energy (top right), kinetic energy (middle right), and total energy (bottom right) of the basket ball falling}}{6}{}\protected@file@percent }
\newlabel{fig:basketBall}{{4}{6}{}{}{}}
\citation{numpy}
\abx@aux@cite{0}{numpy}
\abx@aux@segm{0}{0}{numpy}
\citation{matplotlib}
\abx@aux@cite{0}{matplotlib}
\abx@aux@segm{0}{0}{matplotlib}
\@writefile{lof}{\contentsline {figure}{\numberline {5}{\ignorespaces The position (top left), velocity (middle left), acceleration (bottom left), potential energy (top right), kinetic energy (middle right), and total energy (bottom right) of the base ball falling}}{7}{}\protected@file@percent }
\newlabel{fig:baseBall}{{5}{7}{}{}{}}
\@writefile{toc}{\contentsline {section}{\numberline {0.5}Discussion}{7}{}\protected@file@percent }
\@writefile{toc}{\contentsline {section}{\numberline {0.6}Conclusion}{8}{}\protected@file@percent }
\@writefile{toc}{\contentsline {section}{\numberline {0.7}References}{8}{}\protected@file@percent }
\@writefile{toc}{\contentsline {section}{\numberline {0.8}Data}{8}{}\protected@file@percent }
\@writefile{lot}{\contentsline {table}{\numberline {3}{\ignorespaces  Times for when a bowling ball hit the ground using doubles}}{8}{}\protected@file@percent }
\newlabel{tab:timeDoubleData}{{3}{8}{}{}{}}
\@writefile{lot}{\contentsline {table}{\numberline {4}{\ignorespaces  final velocities of a bowling ball using doubles}}{9}{}\protected@file@percent }
\newlabel{tab:velocityDoubleData}{{4}{9}{}{}{}}
\@writefile{lot}{\contentsline {table}{\numberline {5}{\ignorespaces  times for a bowling ball using floats}}{9}{}\protected@file@percent }
\newlabel{tab:timeFloatData}{{5}{9}{}{}{}}
\@writefile{lot}{\contentsline {table}{\numberline {6}{\ignorespaces  final velocities of a bowling ball using floats}}{9}{}\protected@file@percent }
\newlabel{tab:velocityFloatData}{{6}{9}{}{}{}}
\abx@aux@read@bbl@mdfivesum{8ED7099181B94A7404C3E85D6C89BEF2}
\abx@aux@defaultrefcontext{0}{numpy}{nty/global//global/global}
\abx@aux@defaultrefcontext{0}{matplotlib}{nty/global//global/global}
\abx@aux@defaultrefcontext{0}{IEEE-754}{nty/global//global/global}
\abx@aux@defaultrefcontext{0}{raylib}{nty/global//global/global}
\abx@aux@defaultlabelprefix{0}{numpy}{}
\abx@aux@defaultlabelprefix{0}{matplotlib}{}
\abx@aux@defaultlabelprefix{0}{IEEE-754}{}
\abx@aux@defaultlabelprefix{0}{raylib}{}
\gdef \@abspage@last{10}
