This is BibTeX, Version 0.99d (TeX Live 2024/Arch Linux)
Capacity: max_strings=200000, hash_size=200000, hash_prime=170003
The top-level auxiliary file: Formal Report 2 Falling Sphere with Air Resistance Proportional to v squared.aux
The style file: biblatex.bst
Reallocated glb_str_ptr (elt_size=8) to 20 items from 10.
Reallocated global_strs (elt_size=200001) to 20 items from 10.
Reallocated glb_str_end (elt_size=8) to 20 items from 10.
Reallocated singl_function (elt_size=8) to 100 items from 50.
Reallocated singl_function (elt_size=8) to 100 items from 50.
Reallocated singl_function (elt_size=8) to 100 items from 50.
Reallocated wiz_functions (elt_size=8) to 6000 items from 3000.
Reallocated singl_function (elt_size=8) to 100 items from 50.
Reallocated singl_function (elt_size=8) to 100 items from 50.
Reallocated singl_function (elt_size=8) to 100 items from 50.
Reallocated singl_function (elt_size=8) to 100 items from 50.
Reallocated singl_function (elt_size=8) to 100 items from 50.
Reallocated singl_function (elt_size=8) to 100 items from 50.
Reallocated singl_function (elt_size=8) to 100 items from 50.
Reallocated singl_function (elt_size=8) to 100 items from 50.
Database file #1: Formal_Report_2_Falling_Sphere_with_Air_Resistance_Proportional_to_v_squared-blx.bib
Database file #2: mybib.bib
Warning--string name "june" is undefined
--line 9 of file mybib.bib
Biblatex version: 3.19
Reallocated wiz_functions (elt_size=8) to 9000 items from 6000.
Reallocated singl_function (elt_size=8) to 100 items from 50.
You've used 5 entries,
            6399 wiz_defined-function locations,
            1236 strings with 10838 characters,
and the built_in function-call counts, 78281 in all, are:
= -- 7126
> -- 1190
< -- 185
+ -- 3038
- -- 732
* -- 5485
:= -- 10468
add.period$ -- 0
call.type$ -- 5
change.case$ -- 94
chr.to.int$ -- 96
cite$ -- 8
duplicate$ -- 7661
empty$ -- 6169
format.name$ -- 467
if$ -- 14710
int.to.chr$ -- 0
int.to.str$ -- 11
missing$ -- 0
newline$ -- 289
num.names$ -- 227
pop$ -- 1872
preamble$ -- 1
purify$ -- 152
quote$ -- 0
skip$ -- 1028
stack$ -- 0
substring$ -- 14408
swap$ -- 1005
text.length$ -- 164
text.prefix$ -- 4
top$ -- 1
type$ -- 158
warning$ -- 0
while$ -- 1242
width$ -- 0
write$ -- 285
(There was 1 warning)
